<?xml version="1.0" encoding="UTF-8" standalone="no"?>
<!DOCTYPE svg PUBLIC "-//W3C//DTD SVG 1.1//EN" "http://www.w3.org/Graphics/SVG/1.1/DTD/svg11.dtd">
<svg width="100%" height="100%" viewBox="0 0 222 60" version="1.1" xmlns="http://www.w3.org/2000/svg" xmlns:xlink="http://www.w3.org/1999/xlink" xml:space="preserve" xmlns:serif="http://www.serif.com/" style="fill-rule:evenodd;clip-rule:evenodd;stroke-linejoin:round;stroke-miterlimit:2; fill: black">
    <g transform="matrix(1,0,0,1,-555.062,-554.631)">
        <g transform="matrix(1,0,0,1,-4.1412,0)">
            <path d="M721.534,569.92L736.045,569.92L736.045,612.869L721.522,612.869L721.522,589.045C722.029,588.379 722.488,587.67 722.899,586.918C724.072,584.771 724.71,582.288 724.71,579.443C724.71,577.103 724.283,575.045 723.511,573.253C722.972,572.001 722.309,570.893 721.534,569.92Z"/>
        </g>
        <path d="M695.569,582.424L695.588,582.434C695.809,582.557 696.112,582.673 696.493,582.796C696.964,582.948 697.497,583.1 698.089,583.252C698.664,583.399 699.253,583.517 699.857,583.605C700.441,583.691 701.017,583.734 701.586,583.734C702.48,583.734 703.301,583.623 704.046,583.393C704.732,583.181 705.322,582.889 705.808,582.502C706.263,582.14 706.622,581.723 706.879,581.245C707.112,580.81 707.226,580.337 707.226,579.828C707.226,579.184 707.117,578.636 706.849,578.196C706.587,577.768 706.223,577.431 705.763,577.18C705.194,576.87 704.504,576.659 703.702,576.53C702.782,576.381 701.787,576.308 700.719,576.308L696.481,576.308L696.481,570.798L702.863,563.01L692.385,563.01L692.385,554.631L715.123,554.631L715.123,561.133L708.321,568.901C708.893,569.012 709.457,569.169 710.014,569.371C711.273,569.829 712.389,570.516 713.362,571.432C714.327,572.34 715.109,573.472 715.696,574.835C716.27,576.168 716.568,577.702 716.568,579.443C716.568,581.556 716.119,583.406 715.248,584.999C714.388,586.572 713.254,587.897 711.846,588.976C710.461,590.037 708.872,590.832 707.074,591.353C705.329,591.859 703.532,592.113 701.682,592.113C700.147,592.113 698.612,591.976 697.076,591.703C696.839,591.661 696.602,591.615 696.367,591.566C696.379,591.169 696.385,590.768 696.385,590.362C696.385,587.451 696.104,584.808 695.569,582.424ZM704.477,596.608C707.796,596.608 710.491,599.303 710.491,602.622C710.491,605.941 707.796,608.636 704.477,608.636C701.157,608.636 698.463,605.941 698.463,602.622C698.463,599.303 701.157,596.608 704.477,596.608Z"/>
        <g transform="matrix(1,0,0,1,-4,0)">
            <path d="M740.339,569.914L753.164,569.948C753.164,569.948 753.788,572.265 753.789,572.265C754.399,571.834 755.055,571.422 755.759,571.029C758.27,569.627 761.271,568.897 764.775,568.897C766.905,568.897 768.905,569.189 770.776,569.765C772.813,570.392 774.548,571.431 775.989,572.872C777.386,574.269 778.521,576.151 779.341,578.55C780.099,580.768 780.499,583.503 780.499,586.759L780.499,612.869L765.85,612.869L765.85,588.821C765.85,586.517 765.496,584.806 764.457,583.786C763.496,582.842 762.271,582.4 760.804,582.4C759.417,582.4 758.152,582.805 757.009,583.611C756.019,584.309 755.295,585.147 754.862,586.148L754.862,612.869L740.339,612.869L740.339,569.914Z"/>
        </g>
        <path d="M664.436,570.845C664.878,570.621 665.343,570.413 665.83,570.221C667.872,569.415 670.385,568.987 673.377,568.987C679.135,568.987 683.724,570.842 687.184,574.448C690.569,577.974 692.385,583.252 692.385,590.362C692.385,594.096 691.813,597.396 690.698,600.266C689.545,603.234 687.908,605.706 685.804,607.694C683.711,609.673 681.164,611.188 678.152,612.221C675.253,613.215 671.982,613.723 668.337,613.723C664.06,613.723 660.485,613.208 657.606,612.221C654.725,611.233 652.495,610.232 650.904,609.244L649.788,608.552L649.788,567.752L643.908,567.752L643.908,554.631L664.436,554.631L664.436,570.845ZM670.628,582.108C670.116,582.108 669.55,582.211 668.927,582.394C668.243,582.595 667.589,582.878 666.965,583.24C666.347,583.598 665.772,584.048 665.234,584.586C664.896,584.924 664.628,585.295 664.436,585.703C664.436,585.703 664.436,599.56 664.437,599.56C664.922,599.733 665.471,599.906 666.084,600.081C667.308,600.431 668.619,600.602 670.017,600.602C671.031,600.602 671.997,600.419 672.913,600.048C673.77,599.702 674.514,599.159 675.152,598.429C675.852,597.629 676.389,596.62 676.789,595.419C677.229,594.1 677.431,592.515 677.431,590.668C677.431,587.742 676.919,585.506 675.662,584.023C674.527,582.683 672.824,582.108 670.628,582.108Z"/>
        <path d="M601.755,591.355C601.755,587.827 602.302,584.693 603.366,581.949C604.462,579.122 606.026,576.732 608.045,574.771C610.064,572.81 612.469,571.32 615.265,570.311C617.974,569.334 621.002,568.834 624.352,568.834C627.876,568.834 631.02,569.379 633.789,570.442C636.641,571.537 639.042,573.086 641.001,575.074C642.967,577.07 644.463,579.48 645.475,582.314C646.452,585.049 646.949,588.062 646.949,591.355C646.949,594.883 646.403,598.017 645.338,600.761C644.242,603.588 642.678,605.977 640.659,607.939C638.64,609.9 636.236,611.39 633.439,612.399C630.73,613.376 627.703,613.875 624.352,613.875C620.828,613.875 617.684,613.33 614.915,612.268C612.063,611.173 609.663,609.623 607.704,607.635C605.737,605.64 604.241,603.23 603.229,600.396C602.252,597.661 601.755,594.648 601.755,591.355ZM616.709,591.355C616.709,592.774 616.896,594.087 617.283,595.291C617.647,596.424 618.168,597.419 618.856,598.27C619.497,599.061 620.268,599.675 621.172,600.108C622.096,600.551 623.159,600.754 624.352,600.754C626.611,600.754 628.466,600.073 629.888,598.632C631.392,597.107 631.995,594.651 631.995,591.355C631.995,588.458 631.343,586.099 629.916,584.315C628.623,582.698 626.749,581.955 624.352,581.955C623.21,581.955 622.148,582.122 621.169,582.469C620.313,582.773 619.573,583.265 618.948,583.943C618.261,584.689 617.736,585.64 617.344,586.779C616.908,588.042 616.709,589.569 616.709,591.355Z"/>
        <path d="M577.17,572.899C577.974,572.237 578.822,571.634 579.712,571.09C581.898,569.754 584.443,569.063 587.357,569.063C591.205,569.063 594.219,570.506 596.431,573.327C598.421,575.865 599.569,580.068 599.569,586.009L599.569,588.37L585.913,588.37L585.913,586.009C585.913,584.765 585.843,583.838 585.48,583.268C585.37,583.094 585.156,583.101 584.914,583.101C583.502,583.101 582.345,583.391 581.481,584.096C580.603,584.813 579.835,585.619 579.18,586.516L579.18,599.685L595.751,599.685L595.751,612.806L555.062,612.806L555.062,599.685L564.531,599.685L564.531,583.025L555.062,583.025L555.062,569.903L576.489,569.903L577.17,572.899Z"/>
    </g>
</svg>
